…
--- .class #id

## Printing

```r

## # A tibble: 1,000 x 5
##                      a          b     c          d     e
##                 <dttm>     <date> <int>      <dbl> <chr>
## 1  2017-02-18 05:28:37 2017-03-08     1 0.02150370     f
## 2  2017-02-17 22:08:24 2017-03-08     2 0.08031493     k
## 3  2017-02-18 02:03:13 2017-03-07     3 0.11670172     u
## 4  2017-02-18 15:16:10 2017-03-08     4 0.24552337     h
## 5  2017-02-18 00:41:20 2017-03-04     5 0.11232662     b
## 6  2017-02-18 06:26:41 2017-03-08     6 0.52834632     m
## 7  2017-02-18 10:08:57 2017-03-15     7 0.78928491     v
## 8  2017-02-18 13:28:41 2017-03-15     8 0.80388276     h
## 9  2017-02-18 11:35:47 2017-03-18     9 0.45767339     d
## 10 2017-02-18 05:40:18 2017-02-24    10 0.18177950     t
## # ... with 990 more rows
```
…
--- .class #id

## Piping or Chaining

To consider an example we will look at the data provided in the 'fivethirtyeight' package:


```r
library(fivethirtyeight)
drinks
```

```
## # A tibble: 193 x 5
##    country           beer_servings spirit_servings wine_servings total_li~
##    <chr>                     <int>           <int>         <int>     <dbl>
##  1 Afghanistan                   0               0             0     0    
##  2 Albania                      89             132            54     4.90 
##  3 Algeria                      25               0            14     0.700
##  4 Andorra                     245             138           312    12.4  
##  5 Angola                      217              57            45     5.90 
##  6 Antigua & Barbuda           102             128            45     4.90 
##  7 Argentina                   193              25           221     8.30 
##  8 Armenia                      21             179            11     3.80 
##  9 Australia                   261              72           212    10.4  
## 10 Austria                     279              75           191     9.70 
## # ... with 183 more rows
```
…
```r
flying %>%
  select(sex = gender)
```

--- .class #id

## Renaming Columns


```
## # A tibble: 1,040 x 1
##    sex  
##    <chr>
##  1 <NA> 
##  2 Male 
##  3 Male 
##  4 Male 
##  5 Male 
##  6 Male 
##  7 Male 
##  8 Male 
##  9 <NA> 
## 10 Male 
## # ... with 1,030 more rows
```
…
```r
flying %>%
    select(sex, frequency) %>%
    arrange(frequency)
```


--- .class #id

## Arrange Function Example


```
## # A tibble: 1,040 x 2
##    sex   frequency
##    <chr> <fctr>   
##  1 Male  Never    
##  2 Male  Never    
##  3 Male  Never    
##  4 Male  Never    
##  5 Male  Never    
##  6 Male  Never    
##  7 Male  Never    
##  8 Male  Never    
##  9 Male  Never    
## 10 Male  Never    
## # ... with 1,030 more rows
```
…
--- .class #id

## Arrange Function Descending Example




```
## # A tibble: 1,040 x 2
##    sex    frequency            
##    <chr>  <fctr>               
##  1 Male   Every day            
##  2 Female Every day            
##  3 Male   Every day            
##  4 <NA>   A few times per week 
##  5 <NA>   A few times per week 
##  6 Male   A few times per week 
##  7 Male   A few times per week 
##  8 Male   A few times per month
##  9 Male   A few times per month
## 10 Male   A few times per month
## # ... with 1,030 more rows
```
…
--- .class #id

## More Complex Arrange



```
## # A tibble: 263 x 27
## # Groups: sex, location [20]
##    sex   respon~ age    height child~ hous~ educa~ loca~ freq~ recl~ recl~
##    <chr>   <dbl> <fctr> <fctr> <lgl>  <fct> <fctr> <chr> <fct> <fct> <lgl>
##  1 Male   3.43e9 > 60   "5'9\~ F      $50,~ Bache~ East~ Once~ Once~ T    
##  2 Male   3.43e9 > 60   "6'5\~ F      $50,~ Bache~ West~ Once~ Never T    
##  3 Male   3.43e9 > 60   "5'11~ F      $50,~ Some ~ West~ Once~ Alwa~ F    
##  4 Male   3.43e9 > 60   "5'8\~ F      <NA>  Gradu~ Moun~ Once~ Never F    
##  5 Male   3.43e9 > 60   "5'8\~ F      $100~ Some ~ West~ Once~ Abou~ F    
##  6 Male   3.43e9 > 60   "5'7\~ F      $100~ Bache~ Moun~ Once~ Once~ F    
##  7 Male   3.43e9 > 60   <NA>   NA     <NA>  Some ~ Midd~ Never <NA>  NA   
##  8 Male   3.43e9 > 60   "5'11~ F      <NA>  Gradu~ Midd~ Once~ Once~ F    
##  9 Male   3.43e9 > 60   "5'10~ F      <NA>  Bache~ Paci~ Once~ Once~ T    
## 10 Male   3.43e9 > 60   "5'9\~ F      <NA>  Gradu~ Midd~ Once~ Never T    
## # ... with 253 more rows, and 16 more variables: recline_rude <fctr>,
## #   recline_eliminate <lgl>, switch_seats_friends <fctr>,
## #   switch_seats_family <fctr>, wake_up_bathroom <fctr>, wake_up_walk
## #   <fctr>, baby <fctr>, unruly_child <fctr>, two_arm_rests <chr>,
## #   middle_arm_rest <chr>, shade <chr>, unsold_seat <fctr>, talk_stranger
## #   <fctr>, get_up <fctr>, electronics <lgl>, smoked <lgl>
```
…
--- .class #id

## Another Example






```
## # A tibble: 21 x 4
## # Groups: sex [?]
##    sex    location           age_num_min age_num_max
##    <chr>  <chr>                    <dbl>       <dbl>
##  1 Female East North Central        1.00        4.00
##  2 Female East South Central        1.00        4.00
##  3 Female Middle Atlantic           1.00        4.00
##  4 Female Mountain                  1.00        4.00
##  5 Female New England               1.00        4.00
##  6 Female Pacific                   1.00        4.00
##  7 Female South Atlantic            1.00        4.00
##  8 Female West North Central        1.00        4.00
##  9 Female West South Central        1.00        4.00
## 10 Female <NA>                      2.00        4.00
## # ... with 11 more rows
```
…
--- .class #id

## Counting Events





```
## # A tibble: 41 x 3
## # Groups: age [5]
##    age    location           person_count
##    <fctr> <chr>                     <int>
##  1 30-44  Pacific                      60
##  2 18-29  Pacific                      56
##  3 > 60   Pacific                      54
##  4 > 60   South Atlantic               51
##  5 45-60  Middle Atlantic              48
##  6 45-60  Pacific                      48
##  7 45-60  South Atlantic               48
##  8 30-44  East North Central           42
##  9 45-60  East North Central           42
## 10 18-29  South Atlantic               38
## # ... with 31 more rows
```
…
```r
flying %>%
    group_by(age, location) %>%
    tally(sort = TRUE)
```

--- .class #id

## Counting Events




```
## # A tibble: 41 x 3
## # Groups: age [5]
##    age    location               n
##    <fctr> <chr>              <int>
##  1 30-44  Pacific               60
##  2 18-29  Pacific               56
##  3 > 60   Pacific               54
##  4 > 60   South Atlantic        51
##  5 45-60  Middle Atlantic       48
##  6 45-60  Pacific               48
##  7 45-60  South Atlantic        48
##  8 30-44  East North Central    42
##  9 45-60  East North Central    42
## 10 18-29  South Atlantic        38
## # ... with 31 more rows
```
…
--- .class #id

## Counting Unique Items



```
## # A tibble: 41 x 4
## # Groups: age [?]
##    age    location           person_count get_up_unique
##    <fctr> <chr>                     <int>         <int>
##  1 18-29  East North Central           33             6
##  2 18-29  East South Central            7             3
##  3 18-29  Middle Atlantic              22             7
##  4 18-29  Mountain                     15             6
##  5 18-29  New England                  12             7
##  6 18-29  Pacific                      56             7
##  7 18-29  South Atlantic               38             6
##  8 18-29  West North Central           17             4
##  9 18-29  West South Central           19             6
## 10 18-29  <NA>                          1             1
## # ... with 31 more rows
```
…
--- .class #id


## Mutate and Transmute Example

Notice with `mutate()` we kept all of the variables we selected and added beer to wine ratio to this.



```
## # A tibble: 193 x 4
##    country           beer_servings wine_servings beer_2_wine
##    <chr>                     <int>         <int>       <dbl>
##  1 Afghanistan                   0             0     NaN    
##  2 Albania                      89            54       1.65 
##  3 Algeria                      25            14       1.79 
##  4 Andorra                     245           312       0.785
##  5 Angola                      217            45       4.82 
##  6 Antigua & Barbuda           102            45       2.27 
##  7 Argentina                   193           221       0.873
##  8 Armenia                      21            11       1.91 
##  9 Australia                   261           212       1.23 
## 10 Austria                     279           191       1.46 
## # ... with 183 more rows
```
…
--- .class #id


## Mutate and Transmute Example        
              
     
Now we can do the same with `transmute()`:


```
## # A tibble: 193 x 1
##    beer_2_wine
##          <dbl>
##  1     NaN    
##  2       1.65 
##  3       1.79 
##  4       0.785
##  5       4.82 
##  6       2.27 
##  7       0.873
##  8       1.91 
##  9       1.23 
## 10       1.46 
## # ... with 183 more rows
```
