Introduction to Statistics in R
…
Tibbles only print the first 10 rows and all the columns that fit on a screen. - Each column displays its data type. 

You will not accidentally print too much. 

tibble(
  a = lubridate::now() + runif(1e3) * 86400,
  b = lubridate::today() + runif(1e3) * 30,
  c = 1:1e3,
  d = runif(1e3),
  e = sample(letters, 1e3, replace = TRUE)
)

    Printing

## # A tibble: 1,000 x 5
##                      a          b     c          d     e
##                 <dttm>     <date> <int>      <dbl> <chr>
## 1  2017-02-18 05:28:37 2017-03-08     1 0.02150370     f
## 2  2017-02-17 22:08:24 2017-03-08     2 0.08031493     k
## 3  2017-02-18 02:03:13 2017-03-07     3 0.11670172     u
## 4  2017-02-18 15:16:10 2017-03-08     4 0.24552337     h
## 5  2017-02-18 00:41:20 2017-03-04     5 0.11232662     b
## 6  2017-02-18 06:26:41 2017-03-08     6 0.52834632     m
## 7  2017-02-18 10:08:57 2017-03-15     7 0.78928491     v
## 8  2017-02-18 13:28:41 2017-03-15     8 0.80388276     h
## 9  2017-02-18 11:35:47 2017-03-18     9 0.45767339     d
## 10 2017-02-18 05:40:18 2017-02-24    10 0.18177950     t
## # ... with 990 more rows
…
    Piping or Chaining

We will discuss a concept that will help us greatly when it comes to working with our data. 

The usual way to perform multiple operations in one line is by nesting. 

    Piping or Chaining

    To consider an example we will look at the data provided in the 'fivethirtyeight' package:

library(fivethirtyeight)
drinks

## # A tibble: 193 x 5
##    country           beer_servings spirit_servings wine_servings total_li~
##    <chr>                     <int>           <int>         <int>     <dbl>
##  1 Afghanistan                   0               0             0     0    
##  2 Albania                      89             132            54     4.90 
##  3 Algeria                      25               0            14     0.700
##  4 Andorra                     245             138           312    12.4  
##  5 Angola                      217              57            45     5.90 
##  6 Antigua & Barbuda           102             128            45     4.90 
##  7 Argentina                   193              25           221     8.30 
##  8 Armenia                      21             179            11     3.80 
##  9 Australia                   261              72           212    10.4  
## 10 Austria                     279              75           191     9.70 
## # ... with 183 more rows
…
Indexing

Let's say you only wanted to see information from people who never recline their seats.

We could do this in what is called the indexing method.

library(fivethirtyeight)
flying[recline_frequency=="Never",]

Now this is not very difficult to do, what we have is that we are working with flying and we only want to keep the rows of data there recline_frequency=="Never". 

    Indexing

## # A tibble: 353 x 27
##    respond~ gender age    height chil~ hous~ educ~ loca~ freq~ recl~ recl~
##       <dbl> <chr>  <fctr> <fctr> <lgl> <fct> <fct> <chr> <fct> <fct> <lgl>
##  1  NA      <NA>   <NA>   <NA>   NA    <NA>  <NA>  <NA>  <NA>  <NA>  NA   
##  2   3.43e9 Male   30-44  "5'6\~ F     $0 -~ Bach~ Paci~ Once~ Never T    
##  3  NA      <NA>   <NA>   <NA>   NA    <NA>  <NA>  <NA>  <NA>  <NA>  NA   
##  4   3.43e9 <NA>   <NA>   "5'7\~ NA    <NA>  <NA>  <NA>  Once~ Never F    
##  5  NA      <NA>   <NA>   <NA>   NA    <NA>  <NA>  <NA>  <NA>  <NA>  NA   
##  6  NA      <NA>   <NA>   <NA>   NA    <NA>  <NA>  <NA>  <NA>  <NA>  NA   
##  7  NA      <NA>   <NA>   <NA>   NA    <NA>  <NA>  <NA>  <NA>  <NA>  NA   
##  8  NA      <NA>   <NA>   <NA>   NA    <NA>  <NA>  <NA>  <NA>  <NA>  NA   
##  9   3.43e9 Male   18-29  "5'10~ F     $25,~ Bach~ Sout~ Once~ Never T    
## 10  NA      <NA>   <NA>   <NA>   NA    <NA>  <NA>  <NA>  <NA>  <NA>  NA   
## # ... with 343 more rows, and 16 more variables: recline_rude <fctr>,
## #   recline_eliminate <lgl>, switch_seats_friends <fctr>,
## #   switch_seats_family <fctr>, wake_up_bathroom <fctr>, wake_up_walk
## #   <fctr>, baby <fctr>, unruly_child <fctr>, two_arm_rests <chr>,
## #   middle_arm_rest <chr>, shade <chr>, unsold_seat <fctr>, talk_stranger
## #   <fctr>, get_up <fctr>, electronics <lgl>, smoked <lgl>
…
.data is a tibble

... is a set of arguments about the data you want returned.

    Filtering Example

    From our previous example, we could consider only those who never recline their seats:

flying %>%
  filter(recline_frequency=="Never")

    Filtering Example

## # A tibble: 171 x 27
##    respon~ gender age    height chil~ hous~ educa~ loca~ freq~ recl~ recl~
##      <dbl> <chr>  <fctr> <fctr> <lgl> <fct> <fctr> <chr> <fct> <fct> <lgl>
##  1  3.43e9 Male   30-44  "5'6\~ F     $0 -~ Bache~ Paci~ Once~ Never T    
##  2  3.43e9 <NA>   <NA>   "5'7\~ NA    <NA>  <NA>   <NA>  Once~ Never F    
##  3  3.43e9 Male   18-29  "5'10~ F     $25,~ Bache~ Sout~ Once~ Never T    
##  4  3.43e9 Male   30-44  "5'10~ F     $50,~ Some ~ Sout~ Once~ Never T    
##  5  3.43e9 Male   18-29  "5'10~ T     $50,~ Some ~ Paci~ Once~ Never T    
##  6  3.43e9 Male   18-29  "5'7\~ F     $25,~ Bache~ Paci~ Once~ Never T    
##  7  3.43e9 Male   18-29  "6'0\~ F     $0 -~ Some ~ East~ Once~ Never T    
##  8  3.43e9 Male   30-44  "5'10~ F     <NA>  Gradu~ Sout~ Once~ Never T    
##  9  3.43e9 Male   18-29  "6'0\~ F     <NA>  Bache~ East~ Once~ Never T    
## 10  3.43e9 Male   30-44  "5'9\~ T     $100~ High ~ Paci~ Once~ Never T    
## # ... with 161 more rows, and 16 more variables: recline_rude <fctr>,
## #   recline_eliminate <lgl>, switch_seats_friends <fctr>,
## #   switch_seats_family <fctr>, wake_up_bathroom <fctr>, wake_up_walk
## #   <fctr>, baby <fctr>, unruly_child <fctr>, two_arm_rests <chr>,
## #   middle_arm_rest <chr>, shade <chr>, unsold_seat <fctr>, talk_stranger
## #   <fctr>, get_up <fctr>, electronics <lgl>, smoked <lgl>

    Further Filtering

filter() supports the use of multiple conditions where we can use Boolean. 

For example if we wanted to consider only males who fly Once a year or less:

flying %>%
  filter(gender=="Male" & frequency=="Once a year or less")

    Further Filtering

## # A tibble: 277 x 27
##    respon~ gender age    height chil~ hous~ educa~ loca~ freq~ recl~ recl~
##      <dbl> <chr>  <fctr> <fctr> <lgl> <fct> <fctr> <chr> <fct> <fct> <lgl>
##  1  3.43e9 Male   30-44  "6'3\~ T     <NA>  Gradu~ Paci~ Once~ Abou~ T    
##  2  3.43e9 Male   30-44  "5'8\~ F     $100~ Bache~ Paci~ Once~ Usua~ T    
##  3  3.43e9 Male   30-44  "5'11~ F     $0 -~ Bache~ Paci~ Once~ Alwa~ F    
##  4  3.43e9 Male   30-44  "5'9\~ T     $25,~ Gradu~ East~ Once~ Usua~ T    
##  5  3.43e9 Male   30-44  "6'0\~ T     $0 -~ Bache~ New ~ Once~ Once~ T    
##  6  3.43e9 Male   30-44  "5'6\~ F     $0 -~ Bache~ Paci~ Once~ Never T    
##  7  3.43e9 Male   18-29  "6'0\~ F     <NA>  Some ~ East~ Once~ Once~ T    
##  8  3.43e9 Male   30-44  "5'8\~ T     $100~ Some ~ Midd~ Once~ Alwa~ F    
##  9  3.43e9 Male   30-44  "6'1\~ F     <NA>  Bache~ West~ Once~ Once~ T    
## 10  3.43e9 Male   18-29  "5'10~ F     $25,~ Bache~ Sout~ Once~ Never T    
## # ... with 267 more rows, and 16 more variables: recline_rude <fctr>,
## #   recline_eliminate <lgl>, switch_seats_friends <fctr>,
## #   switch_seats_family <fctr>, wake_up_bathroom <fctr>, wake_up_walk
## #   <fctr>, baby <fctr>, unruly_child <fctr>, two_arm_rests <chr>,
## #   middle_arm_rest <chr>, shade <chr>, unsold_seat <fctr>, talk_stranger
## #   <fctr>, get_up <fctr>, electronics <lgl>, smoked <lgl>
…
... are the columns that you wish to have 

    select() Example

We first start with our data

Then we pass this to the select() function. 

flying %>%
    select(respondent_id, gender, age, height, children_under_18, household_income, education, location)

    select() Example

## # A tibble: 1,040 x 8
##    respondent_id gender age    height   childr~ househo~ education locati~
##            <dbl> <chr>  <fctr> <fctr>   <lgl>   <fctr>   <fctr>    <chr>  
##  1    3436139758 <NA>   <NA>   <NA>     NA      <NA>     <NA>      <NA>   
##  2    3434278696 Male   30-44  "6'3\""  T       <NA>     Graduate~ Pacific
##  3    3434275578 Male   30-44  "5'8\""  F       $100,00~ Bachelor~ Pacific
##  4    3434268208 Male   30-44  "5'11\"" F       $0 - $2~ Bachelor~ Pacific
##  5    3434250245 Male   30-44  "5'7\""  F       $50,000~ Bachelor~ Pacific
##  6    3434245875 Male   30-44  "5'9\""  T       $25,000~ Graduate~ East N~
##  7    3434235351 Male   30-44  "6'2\""  T       <NA>     Some col~ Pacific
##  8    3434218031 Male   30-44  "6'0\""  T       $0 - $2~ Bachelor~ New En~
##  9    3434213681 <NA>   <NA>   "6'0\""  T       <NA>     <NA>      <NA>   
## 10    3434172894 Male   30-44  "5'6\""  F       $0 - $2~ Bachelor~ Pacific
## # ... with 1,030 more rows

    Removing Columns

We may wish to choose columns like we did previously. 

Sometimes we just wish to remove columns that we are not interested in. 

Perhaps in the case of de-identifying data so that users personal information is not there. 

flying %>%
    select(-respondent_id)

    Removing Columns

## # A tibble: 1,040 x 26
##    gend~ age   heig~ chil~ hous~ educ~ loca~ freq~ recl~ recl~ recl~ recl~
##    <chr> <fct> <fct> <lgl> <fct> <fct> <chr> <fct> <fct> <lgl> <fct> <lgl>
##  1 <NA>  <NA>  <NA>  NA    <NA>  <NA>  <NA>  Once~ <NA>  NA    <NA>  NA   
##  2 Male  30-44 "6'3~ T     <NA>  Grad~ Paci~ Once~ Abou~ T     Some~ F    
##  3 Male  30-44 "5'8~ F     $100~ Bach~ Paci~ Once~ Usua~ T     No    F    
##  4 Male  30-44 "5'1~ F     $0 -~ Bach~ Paci~ Once~ Alwa~ F     No    F    
##  5 Male  30-44 "5'7~ F     $50,~ Bach~ Paci~ Once~ Abou~ F     No    F    
##  6 Male  30-44 "5'9~ T     $25,~ Grad~ East~ Once~ Usua~ T     No    F    
##  7 Male  30-44 "6'2~ T     <NA>  Some~ Paci~ Once~ Once~ F     Some~ T    
##  8 Male  30-44 "6'0~ T     $0 -~ Bach~ New ~ Once~ Once~ T     No    T    
##  9 <NA>  <NA>  "6'0~ T     <NA>  <NA>  <NA>  Once~ Once~ T     No    T    
## 10 Male  30-44 "5'6~ F     $0 -~ Bach~ Paci~ Once~ Never T     Very  T    
## # ... with 1,030 more rows, and 14 more variables: switch_seats_friends
## #   <fctr>, switch_seats_family <fctr>, wake_up_bathroom <fctr>,
## #   wake_up_walk <fctr>, baby <fctr>, unruly_child <fctr>, two_arm_rests
## #   <chr>, middle_arm_rest <chr>, shade <chr>, unsold_seat <fctr>,
## #   talk_stranger <fctr>, get_up <fctr>, electronics <lgl>, smoked <lgl>
…
Many times we may wish to rename a column so that it makes more sense to us.

 The select() function can rename things for us as well. 

For example, there is a variable called gender in the flying data. 

This actually refers to binary sex and not what we know as gender. We could rename this to be:

flying %>%
  select(sex = gender)

    Renaming Columns

## # A tibble: 1,040 x 1
##    sex  
##    <chr>
##  1 <NA> 
##  2 Male 
##  3 Male 
##  4 Male 
##  5 Male 
##  6 Male 
##  7 Male 
##  8 Male 
##  9 <NA> 
## 10 Male 
## # ... with 1,030 more rows
…
Where

.data is a data frame of interest.

... are the variables you wish to sort by. 

    Arrange Function Example

flying %>%
    select(sex, frequency) %>%
    arrange(frequency)

    Arrange Function Example

## # A tibble: 1,040 x 2
##    sex   frequency
##    <chr> <fctr>   
##  1 Male  Never    
##  2 Male  Never    
##  3 Male  Never    
##  4 Male  Never    
##  5 Male  Never    
##  6 Male  Never    
##  7 Male  Never    
##  8 Male  Never    
##  9 Male  Never    
## 10 Male  Never    
## # ... with 1,030 more rows

    Arrange Function Descending Example

With arrange() we first use select() to pick the only columns that we want and then we arrange by the dep_delay. 

If we had wished to order them in a descending manner we could have simply used the desc() function:

flying %>%
    select(sex, frequency) %>%
    arrange(desc(frequency))

    Arrange Function Descending Example

## # A tibble: 1,040 x 2
##    sex    frequency            
##    <chr>  <fctr>               
##  1 Male   Every day            
##  2 Female Every day            
##  3 Male   Every day            
##  4 <NA>   A few times per week 
##  5 <NA>   A few times per week 
##  6 Male   A few times per week 
##  7 Male   A few times per week 
##  8 Male   A few times per month
##  9 Male   A few times per month
## 10 Male   A few times per month
## # ... with 1,030 more rows
…
order them largest to smallest

    More Complex Arrange

    This can be done in the following manner:

flying %>% 
  group_by(sex, location) %>%  
  top_n(3, age) %>% 
  arrange(desc(age))

    More Complex Arrange

## # A tibble: 263 x 27
## # Groups: sex, location [20]
##    sex   respon~ age    height child~ hous~ educa~ loca~ freq~ recl~ recl~
##    <chr>   <dbl> <fctr> <fctr> <lgl>  <fct> <fctr> <chr> <fct> <fct> <lgl>
##  1 Male   3.43e9 > 60   "5'9\~ F      $50,~ Bache~ East~ Once~ Once~ T    
##  2 Male   3.43e9 > 60   "6'5\~ F      $50,~ Bache~ West~ Once~ Never T    
##  3 Male   3.43e9 > 60   "5'11~ F      $50,~ Some ~ West~ Once~ Alwa~ F    
##  4 Male   3.43e9 > 60   "5'8\~ F      <NA>  Gradu~ Moun~ Once~ Never F    
##  5 Male   3.43e9 > 60   "5'8\~ F      $100~ Some ~ West~ Once~ Abou~ F    
##  6 Male   3.43e9 > 60   "5'7\~ F      $100~ Bache~ Moun~ Once~ Once~ F    
##  7 Male   3.43e9 > 60   <NA>   NA     <NA>  Some ~ Midd~ Never <NA>  NA   
##  8 Male   3.43e9 > 60   "5'11~ F      <NA>  Gradu~ Midd~ Once~ Once~ F    
##  9 Male   3.43e9 > 60   "5'10~ F      <NA>  Bache~ Paci~ Once~ Once~ T    
## 10 Male   3.43e9 > 60   "5'9\~ F      <NA>  Gradu~ Midd~ Once~ Never T    
## # ... with 253 more rows, and 16 more variables: recline_rude <fctr>,
## #   recline_eliminate <lgl>, switch_seats_friends <fctr>,
## #   switch_seats_family <fctr>, wake_up_bathroom <fctr>, wake_up_walk
## #   <fctr>, baby <fctr>, unruly_child <fctr>, two_arm_rests <chr>,
## #   middle_arm_rest <chr>, shade <chr>, unsold_seat <fctr>, talk_stranger
## #   <fctr>, get_up <fctr>, electronics <lgl>, smoked <lgl>
…
    Another Example

    Lets say that we would like to have more than just the averages but we wish to have the minimum and the maximum ages by location and:

flying %>%
    group_by(sex, location) %>%
    mutate(age_num = as.numeric(age)) %>%
    summarise_each(funs(min(., na.rm=TRUE), max(., na.rm=TRUE)), "age_num")

    Another Example

## # A tibble: 21 x 4
## # Groups: sex [?]
##    sex    location           age_num_min age_num_max
##    <chr>  <chr>                    <dbl>       <dbl>
##  1 Female East North Central        1.00        4.00
##  2 Female East South Central        1.00        4.00
##  3 Female Middle Atlantic           1.00        4.00
##  4 Female Mountain                  1.00        4.00
##  5 Female New England               1.00        4.00
##  6 Female Pacific                   1.00        4.00
##  7 Female South Atlantic            1.00        4.00
##  8 Female West North Central        1.00        4.00
##  9 Female West South Central        1.00        4.00
## 10 Female <NA>                      2.00        4.00
## # ... with 11 more rows
…
n_distinct()

    Counting Events

    Let's consider counting how many people are missing information on smoking when broken down by age and location. 

flying %>%
    group_by(age, location) %>%
    summarise(person_count = n()) %>%
    arrange(desc(person_count))

    Counting Events

## # A tibble: 41 x 3
## # Groups: age [5]
##    age    location           person_count
##    <fctr> <chr>                     <int>
##  1 30-44  Pacific                      60
##  2 18-29  Pacific                      56
##  3 > 60   Pacific                      54
##  4 > 60   South Atlantic               51
##  5 45-60  Middle Atlantic              48
##  6 45-60  Pacific                      48
##  7 45-60  South Atlantic               48
##  8 30-44  East North Central           42
##  9 45-60  East North Central           42
## 10 18-29  South Atlantic               38
## # ... with 31 more rows

    Counting Events

    We could also have used what is called the  tally() function:

flying %>%
    group_by(age, location) %>%
    tally(sort = TRUE)

    Counting Events

## # A tibble: 41 x 3
## # Groups: age [5]
##    age    location               n
##    <fctr> <chr>              <int>
##  1 30-44  Pacific               60
##  2 18-29  Pacific               56
##  3 > 60   Pacific               54
##  4 > 60   South Atlantic        51
##  5 45-60  Middle Atlantic       48
##  6 45-60  Pacific               48
##  7 45-60  South Atlantic        48
##  8 30-44  East North Central    42
##  9 45-60  East North Central    42
## 10 18-29  South Atlantic        38
## # ... with 31 more rows

    Counting Unique Items

The last way to count is if we want to find unique items. 

So we could look for one observation per age range and location that discusses how often one should get up during a flight. 

flying %>%
    group_by(age,location) %>%
    summarise(person_count = n(), get_up_unique = n_distinct(get_up))

    Counting Unique Items

## # A tibble: 41 x 4
## # Groups: age [?]
##    age    location           person_count get_up_unique
##    <fctr> <chr>                     <int>         <int>
##  1 18-29  East North Central           33             6
##  2 18-29  East South Central            7             3
##  3 18-29  Middle Atlantic              22             7
##  4 18-29  Mountain                     15             6
##  5 18-29  New England                  12             7
##  6 18-29  Pacific                      56             7
##  7 18-29  South Atlantic               38             6
##  8 18-29  West North Central           17             4
##  9 18-29  West South Central           19             6
## 10 18-29  <NA>                          1             1
## # ... with 31 more rows
…
\[\text{beer to wine ratio} = \dfrac{\text{beer servings}}{\text{wine servings}}\]

    Mutate and Transmute Example

    We can first do this with mutate():

drinks %>% 
  select(country, beer_servings, wine_servings) %>%
  mutate(beer_2_wine = beer_servings/wine_servings)

    Mutate and Transmute Example

    Notice with mutate() we kept all of the variables we selected and added beer to wine ratio to this.

## # A tibble: 193 x 4
##    country           beer_servings wine_servings beer_2_wine
##    <chr>                     <int>         <int>       <dbl>
##  1 Afghanistan                   0             0     NaN    
##  2 Albania                      89            54       1.65 
##  3 Algeria                      25            14       1.79 
##  4 Andorra                     245           312       0.785
##  5 Angola                      217            45       4.82 
##  6 Antigua & Barbuda           102            45       2.27 
##  7 Argentina                   193           221       0.873
##  8 Armenia                      21            11       1.91 
##  9 Australia                   261           212       1.23 
## 10 Austria                     279           191       1.46 
## # ... with 183 more rows

    Mutate and Transmute Example

    Now we can do the same with transmute():

drinks %>% 
  select(country, beer_servings, wine_servings) %>%
  transmute(beer_2_wine = beer_servings/wine_servings)

    Mutate and Transmute Example

    Now we can do the same with transmute():

## # A tibble: 193 x 1
##    beer_2_wine
##          <dbl>
##  1     NaN    
##  2       1.65 
##  3       1.79 
##  4       0.785
##  5       4.82 
##  6       2.27 
##  7       0.873
##  8       1.91 
##  9       1.23 
## 10       1.46 
## # ... with 183 more rows
…
