Introduction to Statistics in R
…
Variance: \(\dfrac{n_sn_L(n_s+n_L+1)}{12}\)

z-test

\[ z = \dfrac{W_s-\dfrac{n_s(n_s+n_L + 1)}{2}}{\sqrt{\dfrac{n_sn_L(n_s+n_L+1)}{12}}}\]

    Wilcoxon Rank-Sum in R

Consider built in data mtcars

library(tidyverse)
cars <- as_data_frame(mtcars)
cars

## # A tibble: 32 x 11
##      mpg   cyl  disp    hp  drat    wt  qsec    vs    am  gear  carb
##  * <dbl> <dbl> <dbl> <dbl> <dbl> <dbl> <dbl> <dbl> <dbl> <dbl> <dbl>
##  1  21.0  6.00   160 110    3.90  2.62  16.5  0     1.00  4.00  4.00
##  2  21.0  6.00   160 110    3.90  2.88  17.0  0     1.00  4.00  4.00
##  3  22.8  4.00   108  93.0  3.85  2.32  18.6  1.00  1.00  4.00  1.00
##  4  21.4  6.00   258 110    3.08  3.22  19.4  1.00  0     3.00  1.00
##  5  18.7  8.00   360 175    3.15  3.44  17.0  0     0     3.00  2.00
##  6  18.1  6.00   225 105    2.76  3.46  20.2  1.00  0     3.00  1.00
##  7  14.3  8.00   360 245    3.21  3.57  15.8  0     0     3.00  4.00
##  8  24.4  4.00   147  62.0  3.69  3.19  20.0  1.00  0     4.00  2.00
##  9  22.8  4.00   141  95.0  3.92  3.15  22.9  1.00  0     4.00  2.00
## 10  19.2  6.00   168 123    3.92  3.44  18.3  1.00  0     4.00  4.00
## # ... with 22 more rows
…
Variable
Description

time
Time in Days until patient felt relief

treatment
Factor with three levels A, B, and C

    Arthritis Data

library(BSDA)
Arthriti

## # A tibble: 51 x 2
##     time treatment
##    <int> <fctr>   
##  1    40 A        
##  2    35 A        
##  3    47 A        
##  4    52 A        
##  5    31 A        
##  6    61 A        
##  7    92 A        
##  8    46 A        
##  9    50 A        
## 10    49 A        
## # ... with 41 more rows
…
